<svg xmlns="http://www.w3.org/2000/svg" width="17.673" height="17.673" viewBox="0 0 17.673 17.673">
  <path id="linkedin_4_" data-name="linkedin (4)" d="M5.523,14.6H3.107V6.8H5.523ZM5.764,4.315A1.415,1.415,0,1,0,4.35,5.73,1.415,1.415,0,0,0,5.764,4.315Zm8.8,5.995c0-2.094-.442-3.647-2.889-3.647a2.507,2.507,0,0,0-2.287,1.2h0V6.8H7.042v7.8H9.389V10.728c0-1.014.258-2,1.516-2,1.24,0,1.28,1.16,1.28,2.061V14.6h2.382ZM17.673,15.6V2.071A2.073,2.073,0,0,0,15.6,0H2.071A2.073,2.073,0,0,0,0,2.071V15.6a2.073,2.073,0,0,0,2.071,2.071H15.6A2.073,2.073,0,0,0,17.673,15.6ZM15.6,1.381a.691.691,0,0,1,.69.69V15.6a.691.691,0,0,1-.69.69H2.071a.691.691,0,0,1-.69-.69V2.071a.691.691,0,0,1,.69-.69Zm0,0" fill="#f2f2f2"/>
</svg>
